verilog/Output.vcd
$date
	Sat Nov  6 13:10:06 2021
$end
$version
	Icarus Verilog
$end
$timescale
	1ps
$end
$scope module pixelSensor_tb $end
$var wire 1 ! anaReset $end
$var wire 8 " pixData [7:0] $end
$var wire 1 # reading $end
$var wire 4 $ read [3:0] $end
$var wire 1 % expose $end
$var wire 1 & erase $end
$var wire 1 ' convert $end
$var wire 1 ( anaRamp $end
$var wire 1 ) anaBias1 $end
$var reg 1 * clk $end
$var reg 8 + data [7:0] $end
$var reg 8 , pixelDataOut [7:0] $end
$var reg 1 - reset $end
$var reg 1 . start $end
$scope module fsm1 $end
$var wire 1 * clk $end
$var wire 1 - reset $end
$var wire 1 . start $end
$var reg 1 ' convert $end
$var reg 10 / counter [9:0] $end
$var reg 1 & erase $end
$var reg 1 % expose $end
$var reg 3 0 next_state [2:0] $end
$var reg 4 1 read [3:0] $end
$var reg 3 2 readState [2:0] $end
$var reg 1 # reading $end
$var reg 3 3 state [2:0] $end
$upscope $end
$scope module ps1 $end
$var wire 8 4 DATA [7:0] $end
$var wire 1 & ERASE $end
$var wire 1 % EXPOSE $end
$var wire 1 ( RAMP $end
$var wire 4 5 READ [3:0] $end
$var wire 1 ! RESET $end
$var wire 1 ) VBN1 $end
$scope module p1 $end
$var wire 8 6 DATA [7:0] $end
$var wire 1 & ERASE $end
$var wire 1 % EXPOSE $end
$var wire 1 ( RAMP $end
$var wire 1 7 READ $end
$var wire 1 ! RESET $end
$var wire 1 ) VBN1 $end
$var reg 1 8 cmp $end
$var reg 8 9 p_data [7:0] $end
$var real 1 : adc $end
$var real 1 ; lsb $end
$var real 1 < tmp $end
$var real 1 = v_erase $end
$upscope $end
$scope module p2 $end
$var wire 8 > DATA [7:0] $end
$var wire 1 & ERASE $end
$var wire 1 % EXPOSE $end
$var wire 1 ( RAMP $end
$var wire 1 ? READ $end
$var wire 1 ! RESET $end
$var wire 1 ) VBN1 $end
$var reg 1 @ cmp $end
$var reg 8 A p_data [7:0] $end
$var real 1 B adc $end
$var real 1 C lsb $end
$var real 1 D tmp $end
$var real 1 E v_erase $end
$upscope $end
$scope module p3 $end
$var wire 8 F DATA [7:0] $end
$var wire 1 & ERASE $end
$var wire 1 % EXPOSE $end
$var wire 1 ( RAMP $end
$var wire 1 G READ $end
$var wire 1 ! RESET $end
$var wire 1 ) VBN1 $end
$var reg 1 H cmp $end
$var reg 8 I p_data [7:0] $end
$var real 1 J adc $end
$var real 1 K lsb $end
$var real 1 L tmp $end
$var real 1 M v_erase $end
$upscope $end
$scope module p4 $end
$var wire 8 N DATA [7:0] $end
$var wire 1 & ERASE $end
$var wire 1 % EXPOSE $end
$var wire 1 ( RAMP $end
$var wire 1 O READ $end
$var wire 1 ! RESET $end
$var wire 1 ) VBN1 $end
$var reg 1 P cmp $end
$var reg 8 Q p_data [7:0] $end
$var real 1 R adc $end
$var real 1 S lsb $end
$var real 1 T tmp $end
$var real 1 U v_erase $end
$upscope $end
$upscope $end
$upscope $end
$enddefinitions $end
#0
$dumpvars
r1.2 U
r0 T
r0.004705882352941176 S
r0 R
bx Q
xP
0O
bz N
r1.2 M
r0 L
r0.004705882352941176 K
r0 J
bx I
xH
0G
bz F
r1.2 E
r0 D
r0.004705882352941176 C
r0 B
bx A
x@
0?
bz >
r1.2 =
r0 <
r0.004705882352941176 ;
r0 :
bx 9
x8
07
bz 6
b0 5
bz 4
bx 3
bx 2
b0 1
bx 0
bx /
0.
0-
bx ,
bx +
0*
0)
0(
0'
0&
0%
b0 $
1#
bz "
1!
$end
#500000
b0 "
b0 4
b0 6
b0 >
b0 F
b0 N
0#
b0 /
b100 2
b100 0
b100 3
b0 +
bz ,
1-
1*
#1000000
b0 0
1.
0-
0*
#1500000
b0 3
0.
1*
#2000000
0P
b0 Q
r1.2 T
0H
b0 I
r1.2 L
0@
b0 A
r1.2 D
08
b0 9
r1.2 <
1&
0*
#2500000
b1 /
1*
#3000000
0*
#3500000
b10 /
1*
#4000000
0*
#4500000
b11 /
1*
#5000000
0*
#5500000
b100 /
1*
#6000000
0*
#6500000
b101 /
1*
#7000000
0*
#7500000
b100 3
b1 0
b110 /
1*
#8000000
0&
0*
#8500000
b1 3
b0 /
1*
#9000000
1%
0*
#9500000
r1.197647058823529 <
r1.197411764705882 D
r1.198588235294118 L
r1.196470588235294 T
1)
b1 /
1*
#10000000
0)
0*
#10500000
r1.192941176470588 T
r1.197176470588235 L
r1.194823529411765 D
r1.195294117647059 <
1)
b10 /
1*
#11000000
0)
0*
#11500000
r1.192941176470588 <
r1.192235294117647 D
r1.195764705882353 L
r1.189411764705883 T
1)
b11 /
1*
#12000000
0)
0*
#12500000
r1.185882352941177 T
r1.19435294117647 L
r1.18964705882353 D
r1.190588235294117 <
1)
b100 /
1*
#13000000
0)
0*
#13500000
r1.188235294117647 <
r1.187058823529412 D
r1.192941176470588 L
r1.182352941176471 T
1)
b101 /
1*
#14000000
0)
0*
#14500000
r1.178823529411765 T
r1.191529411764705 L
r1.184470588235295 D
r1.185882352941176 <
1)
b110 /
1*
#15000000
0)
0*
#15500000
r1.183529411764705 <
r1.181882352941177 D
r1.190117647058823 L
r1.175294117647059 T
1)
b111 /
1*
#16000000
0)
0*
#16500000
r1.171764705882354 T
r1.18870588235294 L
r1.179294117647059 D
r1.181176470588235 <
1)
b1000 /
1*
#17000000
0)
0*
#17500000
r1.178823529411764 <
r1.176705882352942 D
r1.187294117647058 L
r1.168235294117648 T
1)
b1001 /
1*
#18000000
0)
0*
#18500000
r1.164705882352942 T
r1.185882352941175 L
r1.174117647058824 D
r1.176470588235293 <
1)
b1010 /
1*
#19000000
0)
0*
#19500000
r1.174117647058823 <
r1.171529411764707 D
r1.184470588235293 L
r1.161176470588236 T
1)
b1011 /
1*
#20000000
0)
0*
#20500000
r1.157647058823531 T
r1.183058823529411 L
r1.168941176470589 D
r1.171764705882352 <
1)
b1100 /
1*
#21000000
0)
0*
#21500000
r1.169411764705881 <
r1.166352941176472 D
r1.181647058823528 L
r1.154117647058825 T
1)
b1101 /
1*
#22000000
0)
0*
#22500000
r1.150588235294119 T
r1.180235294117646 L
r1.163764705882354 D
r1.167058823529411 <
1)
b1110 /
1*
#23000000
0)
0*
#23500000
r1.16470588235294 <
r1.161176470588237 D
r1.178823529411763 L
r1.147058823529413 T
1)
b1111 /
1*
#24000000
0)
0*
#24500000
r1.143529411764707 T
r1.177411764705881 L
r1.158588235294119 D
r1.162352941176469 <
1)
b10000 /
1*
#25000000
0)
0*
#25500000
r1.159999999999999 <
r1.156000000000001 D
r1.175999999999998 L
r1.140000000000002 T
1)
b10001 /
1*
#26000000
0)
0*
#26500000
r1.136470588235296 T
r1.174588235294116 L
r1.153411764705884 D
r1.157647058823528 <
1)
b10010 /
1*
#27000000
0)
0*
#27500000
r1.155294117647057 <
r1.150823529411766 D
r1.173176470588233 L
r1.13294117647059 T
1)
b10011 /
1*
#28000000
0)
0*
#28500000
r1.129411764705884 T
r1.171764705882351 L
r1.148235294117649 D
r1.152941176470587 <
1)
b10100 /
1*
#29000000
0)
0*
#29500000
r1.150588235294116 <
r1.145647058823531 D
r1.170352941176469 L
r1.125882352941179 T
1)
b10101 /
1*
#30000000
0)
0*
#30500000
r1.122352941176473 T
r1.168941176470586 L
r1.143058823529414 D
r1.148235294117645 <
1)
b10110 /
1*
#31000000
0)
0*
#31500000
r1.145882352941175 <
r1.140470588235296 D
r1.167529411764704 L
r1.118823529411767 T
1)
b10111 /
1*
#32000000
0)
0*
#32500000
r1.115294117647061 T
r1.166117647058821 L
r1.137882352941179 D
r1.143529411764704 <
1)
b11000 /
1*
#33000000
0)
0*
#33500000
r1.141176470588233 <
r1.135294117647061 D
r1.164705882352939 L
r1.111764705882355 T
1)
b11001 /
1*
#34000000
0)
0*
#34500000
r1.10823529411765 T
r1.163294117647056 L
r1.132705882352943 D
r1.138823529411763 <
1)
b11010 /
1*
#35000000
0)
0*
#35500000
r1.136470588235292 <
r1.130117647058826 D
r1.161882352941174 L
r1.104705882352944 T
1)
b11011 /
1*
#36000000
0)
0*
#36500000
r1.101176470588238 T
r1.160470588235291 L
r1.127529411764708 D
r1.134117647058821 <
1)
b11100 /
1*
#37000000
0)
0*
#37500000
r1.131764705882351 <
r1.124941176470591 D
r1.159058823529409 L
r1.097647058823532 T
1)
b11101 /
1*
#38000000
0)
0*
#38500000
r1.094117647058827 T
r1.157647058823527 L
r1.122352941176473 D
r1.12941176470588 <
1)
b11110 /
1*
#39000000
0)
0*
#39500000
r1.127058823529409 <
r1.119764705882356 D
r1.156235294117644 L
r1.090588235294121 T
1)
b11111 /
1*
#40000000
0)
0*
#40500000
r1.087058823529415 T
r1.154823529411762 L
r1.117176470588238 D
r1.124705882352939 <
1)
b100000 /
1*
#41000000
0)
0*
#41500000
r1.122352941176468 <
r1.114588235294121 D
r1.153411764705879 L
r1.083529411764709 T
1)
b100001 /
1*
#42000000
0)
0*
#42500000
r1.080000000000003 T
r1.151999999999997 L
r1.112000000000003 D
r1.119999999999997 <
1)
b100010 /
1*
#43000000
0)
0*
#43500000
r1.117647058823527 <
r1.109411764705885 D
r1.150588235294114 L
r1.076470588235298 T
1)
b100011 /
1*
#44000000
0)
0*
#44500000
r1.072941176470592 T
r1.149176470588232 L
r1.106823529411768 D
r1.115294117647056 <
1)
b100100 /
1*
#45000000
0)
0*
#45500000
r1.112941176470585 <
r1.10423529411765 D
r1.147764705882349 L
r1.069411764705886 T
1)
b100101 /
1*
#46000000
0)
0*
#46500000
r1.06588235294118 T
r1.146352941176467 L
r1.101647058823533 D
r1.110588235294115 <
1)
b100110 /
1*
#47000000
0)
0*
#47500000
r1.108235294117644 <
r1.099058823529415 D
r1.144941176470585 L
r1.062352941176474 T
1)
b100111 /
1*
#48000000
0)
0*
#48500000
r1.058823529411769 T
r1.143529411764702 L
r1.096470588235298 D
r1.105882352941173 <
1)
b101000 /
1*
#49000000
0)
0*
#49500000
r1.103529411764703 <
r1.09388235294118 D
r1.14211764705882 L
r1.055294117647063 T
1)
b101001 /
1*
#50000000
0)
0*
#50500000
r1.051764705882357 T
r1.140705882352937 L
r1.091294117647063 D
r1.101176470588232 <
1)
b101010 /
1*
#51000000
0)
0*
#51500000
r1.098823529411761 <
r1.088705882352945 D
r1.139294117647055 L
r1.048235294117651 T
1)
b101011 /
1*
#52000000
0)
0*
#52500000
r1.044705882352946 T
r1.137882352941172 L
r1.086117647058827 D
r1.096470588235291 <
1)
b101100 /
1*
#53000000
0)
0*
#53500000
r1.09411764705882 <
r1.08352941176471 D
r1.13647058823529 L
r1.04117647058824 T
1)
b101101 /
1*
#54000000
0)
0*
#54500000
r1.037647058823534 T
r1.135058823529407 L
r1.080941176470592 D
r1.091764705882349 <
1)
b101110 /
1*
#55000000
0)
0*
#55500000
r1.089411764705879 <
r1.078352941176475 D
r1.133647058823525 L
r1.034117647058828 T
1)
b101111 /
1*
#56000000
0)
0*
#56500000
r1.030588235294122 T
r1.132235294117643 L
r1.075764705882357 D
r1.087058823529408 <
1)
b110000 /
1*
#57000000
0)
0*
#57500000
r1.084705882352937 <
r1.07317647058824 D
r1.13082352941176 L
r1.027058823529417 T
1)
b110001 /
1*
#58000000
0)
0*
#58500000
r1.023529411764711 T
r1.129411764705878 L
r1.070588235294122 D
r1.082352941176467 <
1)
b110010 /
1*
#59000000
0)
0*
#59500000
r1.079999999999996 <
r1.068000000000005 D
r1.127999999999995 L
r1.020000000000005 T
1)
b110011 /
1*
#60000000
0)
0*
#60500000
r1.016470588235299 T
r1.126588235294113 L
r1.065411764705887 D
r1.077647058823525 <
1)
b110100 /
1*
#61000000
0)
0*
#61500000
r1.075294117647055 <
r1.062823529411769 D
r1.12517647058823 L
r1.012941176470594 T
1)
b110101 /
1*
#62000000
0)
0*
#62500000
r1.009411764705888 T
r1.123764705882348 L
r1.060235294117652 D
r1.072941176470584 <
1)
b110110 /
1*
#63000000
0)
0*
#63500000
r1.070588235294113 <
r1.057647058823534 D
r1.122352941176465 L
r1.005882352941182 T
1)
b110111 /
1*
#64000000
0)
0*
#64500000
r1.002352941176476 T
r1.120941176470583 L
r1.055058823529417 D
r1.068235294117643 <
1)
b111000 /
1*
#65000000
0)
0*
#65500000
r1.065882352941172 <
r1.052470588235299 D
r1.119529411764701 L
r0.9988235294117703 T
1)
b111001 /
1*
#66000000
0)
0*
#66500000
r0.9952941176470644 T
r1.118117647058818 L
r1.049882352941182 D
r1.063529411764701 <
1)
b111010 /
1*
#67000000
0)
0*
#67500000
r1.061176470588231 <
r1.047294117647064 D
r1.116705882352936 L
r0.9917647058823585 T
1)
b111011 /
1*
#68000000
0)
0*
#68500000
r0.9882352941176527 T
r1.115294117647053 L
r1.044705882352946 D
r1.05882352941176 <
1)
b111100 /
1*
#69000000
0)
0*
#69500000
r1.056470588235289 <
r1.042117647058829 D
r1.113882352941171 L
r0.9847058823529468 T
1)
b111101 /
1*
#70000000
0)
0*
#70500000
r0.9811764705882409 T
r1.112470588235288 L
r1.039529411764711 D
r1.054117647058818 <
1)
b111110 /
1*
#71000000
0)
0*
#71500000
r1.051764705882348 <
r1.036941176470594 D
r1.111058823529406 L
r0.977647058823535 T
1)
b111111 /
1*
#72000000
0)
0*
#72500000
r0.9741176470588291 T
r1.109647058823523 L
r1.034352941176476 D
r1.049411764705877 <
1)
b1000000 /
1*
#73000000
0)
0*
#73500000
r1.047058823529406 <
r1.031764705882359 D
r1.108235294117641 L
r0.9705882352941232 T
1)
b1000001 /
1*
#74000000
0)
0*
#74500000
r0.9670588235294173 T
r1.106823529411759 L
r1.029176470588241 D
r1.044705882352936 <
1)
b1000010 /
1*
#75000000
0)
0*
#75500000
r1.042352941176465 <
r1.026588235294124 D
r1.105411764705876 L
r0.9635294117647114 T
1)
b1000011 /
1*
#76000000
0)
0*
#76500000
r0.9600000000000055 T
r1.103999999999994 L
r1.024000000000006 D
r1.039999999999994 <
1)
b1000100 /
1*
#77000000
0)
0*
#77500000
r1.037647058823524 <
r1.021411764705888 D
r1.102588235294111 L
r0.9564705882352996 T
1)
b1000101 /
1*
#78000000
0)
0*
#78500000
r0.9529411764705937 T
r1.101176470588229 L
r1.018823529411771 D
r1.035294117647053 <
1)
b1000110 /
1*
#79000000
0)
0*
#79500000
r1.032941176470582 <
r1.016235294117653 D
r1.099764705882346 L
r0.9494117647058878 T
1)
b1000111 /
1*
#80000000
0)
0*
#80500000
r0.9458823529411819 T
r1.098352941176464 L
r1.013647058823536 D
r1.030588235294112 <
1)
b1001000 /
1*
#81000000
0)
0*
#81500000
r1.028235294117641 <
r1.011058823529418 D
r1.096941176470581 L
r0.9423529411764761 T
1)
b1001001 /
1*
#82000000
0)
0*
#82500000
r0.9388235294117702 T
r1.095529411764699 L
r1.008470588235301 D
r1.02588235294117 <
1)
b1001010 /
1*
#83000000
0)
0*
#83500000
r1.0235294117647 <
r1.005882352941183 D
r1.094117647058817 L
r0.9352941176470643 T
1)
b1001011 /
1*
#84000000
0)
0*
#84500000
r0.9317647058823584 T
r1.092705882352934 L
r1.003294117647066 D
r1.021176470588229 <
1)
b1001100 /
1*
#85000000
0)
0*
#85500000
r1.018823529411758 <
r1.000705882352948 D
r1.091294117647052 L
r0.9282352941176525 T
1)
b1001101 /
1*
#86000000
0)
0*
#86500000
r0.9247058823529466 T
r1.089882352941169 L
r0.9981176470588303 D
r1.016470588235288 <
1)
b1001110 /
1*
#87000000
0)
0*
#87500000
r1.014117647058817 <
r0.9955294117647127 D
r1.088470588235287 L
r0.9211764705882407 T
1)
b1001111 /
1*
#88000000
0)
0*
#88500000
r0.9176470588235348 T
r1.087058823529404 L
r0.992941176470595 D
r1.011764705882346 <
1)
b1010000 /
1*
#89000000
0)
0*
#89500000
r1.009411764705876 <
r0.9903529411764773 D
r1.085647058823522 L
r0.9141176470588289 T
1)
b1010001 /
1*
#90000000
0)
0*
#90500000
r0.910588235294123 T
r1.084235294117639 L
r0.9877647058823597 D
r1.007058823529405 <
1)
b1010010 /
1*
#91000000
0)
0*
#91500000
r1.004705882352934 <
r0.985176470588242 D
r1.082823529411757 L
r0.9070588235294171 T
1)
b1010011 /
1*
#92000000
0)
0*
#92500000
r0.9035294117647112 T
r1.081411764705875 L
r0.9825882352941243 D
r1.002352941176464 <
1)
b1010100 /
1*
#93000000
0)
0*
#93500000
r0.9999999999999932 <
r0.9800000000000066 D
r1.079999999999992 L
r0.9000000000000054 T
1)
b1010101 /
1*
#94000000
0)
0*
#94500000
r0.8964705882352995 T
r1.07858823529411 L
r0.977411764705889 D
r0.9976470588235227 <
1)
b1010110 /
1*
#95000000
0)
0*
#95500000
r0.9952941176470521 <
r0.9748235294117713 D
r1.077176470588227 L
r0.8929411764705936 T
1)
b1010111 /
1*
#96000000
0)
0*
#96500000
r0.8894117647058877 T
r1.075764705882345 L
r0.9722352941176536 D
r0.9929411764705816 <
1)
b1011000 /
1*
#97000000
0)
0*
#97500000
r0.990588235294111 <
r0.969647058823536 D
r1.074352941176462 L
r0.8858823529411818 T
1)
b1011001 /
1*
#98000000
0)
0*
#98500000
r0.8823529411764759 T
r1.07294117647058 L
r0.9670588235294183 D
r0.9882352941176404 <
1)
b1011010 /
1*
#99000000
0)
0*
#99500000
r0.9858823529411699 <
r0.9644705882353006 D
r1.071529411764697 L
r0.87882352941177 T
1)
b1011011 /
1*
#100000000
0)
0*
#100500000
r0.8752941176470641 T
r1.070117647058815 L
r0.961882352941183 D
r0.9835294117646993 <
1)
b1011100 /
1*
#101000000
0)
0*
#101500000
r0.9811764705882288 <
r0.9592941176470653 D
r1.068705882352933 L
r0.8717647058823582 T
1)
b1011101 /
1*
#102000000
0)
0*
#102500000
r0.8682352941176523 T
r1.06729411764705 L
r0.9567058823529476 D
r0.9788235294117582 <
1)
b1011110 /
1*
#103000000
0)
0*
#103500000
r0.9764705882352877 <
r0.95411764705883 D
r1.065882352941168 L
r0.8647058823529464 T
1)
b1011111 /
1*
#104000000
0)
0*
#104500000
r0.8611764705882405 T
r1.064470588235285 L
r0.9515294117647123 D
r0.9741176470588171 <
1)
b1100000 /
1*
#105000000
0)
0*
#105500000
r0.9717647058823465 <
r0.9489411764705946 D
r1.063058823529403 L
r0.8576470588235346 T
1)
b1100001 /
1*
#106000000
0)
0*
#106500000
r0.8541176470588288 T
r1.06164705882352 L
r0.9463529411764769 D
r0.969411764705876 <
1)
b1100010 /
1*
#107000000
0)
0*
#107500000
r0.9670588235294054 <
r0.9437647058823593 D
r1.060235294117638 L
r0.8505882352941229 T
1)
b1100011 /
1*
#108000000
0)
0*
#108500000
r0.847058823529417 T
r1.058823529411755 L
r0.9411764705882416 D
r0.9647058823529349 <
1)
b1100100 /
1*
#109000000
0)
0*
#109500000
r0.9623529411764643 <
r0.9385882352941239 D
r1.057411764705873 L
r0.8435294117647111 T
1)
b1100101 /
1*
#110000000
0)
0*
#110500000
r0.8400000000000052 T
r1.055999999999991 L
r0.9360000000000063 D
r0.9599999999999937 <
1)
b1100110 /
1*
#111000000
0)
0*
#111500000
r0.9576470588235232 <
r0.9334117647058886 D
r1.054588235294108 L
r0.8364705882352993 T
1)
b1100111 /
1*
#112000000
0)
0*
#112500000
r0.8329411764705934 T
r1.053176470588226 L
r0.9308235294117709 D
r0.9552941176470526 <
1)
b1101000 /
1*
#113000000
0)
0*
#113500000
r0.9529411764705821 <
r0.9282352941176533 D
r1.051764705882343 L
r0.8294117647058875 T
1)
b1101001 /
1*
#114000000
0)
0*
#114500000
r0.8258823529411816 T
r1.050352941176461 L
r0.9256470588235356 D
r0.9505882352941115 <
1)
b1101010 /
1*
#115000000
0)
0*
#115500000
r0.948235294117641 <
r0.9230588235294179 D
r1.048941176470578 L
r0.8223529411764757 T
1)
b1101011 /
1*
#116000000
0)
0*
#116500000
r0.8188235294117698 T
r1.047529411764696 L
r0.9204705882353003 D
r0.9458823529411704 <
1)
b1101100 /
1*
#117000000
0)
0*
#117500000
r0.9435294117646998 <
r0.9178823529411826 D
r1.046117647058813 L
r0.8152941176470639 T
1)
b1101101 /
1*
#118000000
0)
0*
#118500000
r0.8117647058823581 T
r1.044705882352931 L
r0.9152941176470649 D
r0.9411764705882293 <
1)
b1101110 /
1*
#119000000
0)
0*
#119500000
r0.9388235294117587 <
r0.9127058823529473 D
r1.043294117647048 L
r0.8082352941176522 T
1)
b1101111 /
1*
#120000000
0)
0*
#120500000
r0.8047058823529463 T
r1.041882352941166 L
r0.9101176470588296 D
r0.9364705882352882 <
1)
b1110000 /
1*
#121000000
0)
0*
#121500000
r0.9341176470588176 <
r0.9075294117647119 D
r1.040470588235284 L
r0.8011764705882404 T
1)
b1110001 /
1*
#122000000
0)
0*
#122500000
r0.7976470588235345 T
r1.039058823529401 L
r0.9049411764705942 D
r0.9317647058823471 <
1)
b1110010 /
1*
#123000000
0)
0*
#123500000
r0.9294117647058765 <
r0.9023529411764766 D
r1.037647058823519 L
r0.7941176470588286 T
1)
b1110011 /
1*
#124000000
0)
0*
#124500000
r0.7905882352941227 T
r1.036235294117636 L
r0.8997647058823589 D
r0.9270588235294059 <
1)
b1110100 /
1*
#125000000
0)
0*
#125500000
r0.9247058823529354 <
r0.8971764705882412 D
r1.034823529411754 L
r0.7870588235294168 T
1)
b1110101 /
1*
#126000000
0)
0*
#126500000
r0.7835294117647109 T
r1.033411764705871 L
r0.8945882352941236 D
r0.9223529411764648 <
1)
b1110110 /
1*
#127000000
0)
0*
#127500000
r0.9199999999999943 <
r0.8920000000000059 D
r1.031999999999989 L
r0.780000000000005 T
1)
b1110111 /
1*
#128000000
0)
0*
#128500000
r0.7764705882352991 T
r1.030588235294106 L
r0.8894117647058882 D
r0.9176470588235237 <
1)
b1111000 /
1*
#129000000
0)
0*
#129500000
r0.9152941176470532 <
r0.8868235294117706 D
r1.029176470588224 L
r0.7729411764705932 T
1)
b1111001 /
1*
#130000000
0)
0*
#130500000
r0.7694117647058873 T
r1.027764705882342 L
r0.8842352941176529 D
r0.9129411764705826 <
1)
b1111010 /
1*
#131000000
0)
0*
#131500000
r0.910588235294112 <
r0.8816470588235352 D
r1.026352941176459 L
r0.7658823529411815 T
1)
b1111011 /
1*
#132000000
0)
0*
#132500000
r0.7623529411764756 T
r1.024941176470577 L
r0.8790588235294176 D
r0.9082352941176415 <
1)
b1111100 /
1*
#133000000
0)
0*
#133500000
r0.9058823529411709 <
r0.8764705882352999 D
r1.023529411764694 L
r0.7588235294117697 T
1)
b1111101 /
1*
#134000000
0)
0*
#134500000
r0.7552941176470638 T
r1.022117647058812 L
r0.8738823529411822 D
r0.9035294117647004 <
1)
b1111110 /
1*
#135000000
0)
0*
#135500000
r0.9011764705882298 <
r0.8712941176470645 D
r1.020705882352929 L
r0.7517647058823579 T
1)
b1111111 /
1*
#136000000
0)
0*
#136500000
r0.748235294117652 T
r1.019294117647047 L
r0.8687058823529469 D
r0.8988235294117592 <
1)
b10000000 /
1*
#137000000
0)
0*
#137500000
r0.8964705882352887 <
r0.8661176470588292 D
r1.017882352941164 L
r0.7447058823529461 T
1)
b10000001 /
1*
#138000000
0)
0*
#138500000
r0.7411764705882402 T
r1.016470588235282 L
r0.8635294117647115 D
r0.8941176470588181 <
1)
b10000010 /
1*
#139000000
0)
0*
#139500000
r0.8917647058823476 <
r0.8609411764705939 D
r1.0150588235294 L
r0.7376470588235343 T
1)
b10000011 /
1*
#140000000
0)
0*
#140500000
r0.7341176470588284 T
r1.013647058823517 L
r0.8583529411764762 D
r0.889411764705877 <
1)
b10000100 /
1*
#141000000
0)
0*
#141500000
r0.8870588235294065 <
r0.8557647058823585 D
r1.012235294117635 L
r0.7305882352941225 T
1)
b10000101 /
1*
#142000000
0)
0*
#142500000
r0.7270588235294166 T
r1.010823529411752 L
r0.8531764705882409 D
r0.8847058823529359 <
1)
b10000110 /
1*
#143000000
0)
0*
#143500000
r0.8823529411764653 <
r0.8505882352941232 D
r1.00941176470587 L
r0.7235294117647108 T
1)
b10000111 /
1*
#144000000
0)
0*
#144500000
r0.7200000000000049 T
r1.007999999999987 L
r0.8480000000000055 D
r0.8799999999999948 <
1)
b10001000 /
1*
#145000000
0)
0*
#145500000
r0.8776470588235242 <
r0.8454117647058879 D
r1.006588235294105 L
r0.716470588235299 T
1)
b10001001 /
1*
#146000000
0)
0*
#146500000
r0.7129411764705931 T
r1.005176470588222 L
r0.8428235294117702 D
r0.8752941176470537 <
1)
b10001010 /
1*
#147000000
0)
0*
#147500000
r0.8729411764705831 <
r0.8402352941176525 D
r1.00376470588234 L
r0.7094117647058872 T
1)
b10001011 /
1*
#148000000
0)
0*
#148500000
r0.7058823529411813 T
r1.002352941176458 L
r0.8376470588235349 D
r0.8705882352941126 <
1)
b10001100 /
1*
#149000000
0)
0*
#149500000
r0.868235294117642 <
r0.8350588235294172 D
r1.000941176470575 L
r0.7023529411764754 T
1)
b10001101 /
1*
#150000000
0)
0*
#150500000
r0.6988235294117695 T
r0.9995294117646928 L
r0.8324705882352995 D
r0.8658823529411714 <
1)
b10001110 /
1*
#151000000
0)
0*
#151500000
r0.8635294117647009 <
r0.8298823529411818 D
r0.9981176470588105 L
r0.6952941176470636 T
1)
b10001111 /
1*
#152000000
0)
0*
#152500000
r0.6917647058823577 T
r0.9967058823529281 L
r0.8272941176470642 D
r0.8611764705882303 <
1)
b10010000 /
1*
#153000000
0)
0*
#153500000
r0.8588235294117598 <
r0.8247058823529465 D
r0.9952941176470458 L
r0.6882352941176518 T
1)
b10010001 /
1*
#154000000
0)
0*
#154500000
r0.6847058823529459 T
r0.9938823529411634 L
r0.8221176470588288 D
r0.8564705882352892 <
1)
b10010010 /
1*
#155000000
0)
0*
#155500000
r0.8541176470588187 <
r0.8195294117647112 D
r0.9924705882352811 L
r0.68117647058824 T
1)
b10010011 /
1*
#156000000
0)
0*
#156500000
r0.6776470588235342 T
r0.9910588235293988 L
r0.8169411764705935 D
r0.8517647058823481 <
1)
b10010100 /
1*
#157000000
0)
0*
#157500000
r0.8494117647058775 <
r0.8143529411764758 D
r0.9896470588235164 L
r0.6741176470588283 T
1)
b10010101 /
1*
#158000000
0)
0*
#158500000
r0.6705882352941224 T
r0.9882352941176341 L
r0.8117647058823582 D
r0.847058823529407 <
1)
b10010110 /
1*
#159000000
0)
0*
#159500000
r0.8447058823529364 <
r0.8091764705882405 D
r0.9868235294117518 L
r0.6670588235294165 T
1)
b10010111 /
1*
#160000000
0)
0*
#160500000
r0.6635294117647106 T
r0.9854117647058694 L
r0.8065882352941228 D
r0.8423529411764659 <
1)
b10011000 /
1*
#161000000
0)
0*
#161500000
r0.8399999999999953 <
r0.8040000000000052 D
r0.9839999999999871 L
r0.6600000000000047 T
1)
b10011001 /
1*
#162000000
0)
0*
#162500000
r0.6564705882352988 T
r0.9825882352941048 L
r0.8014117647058875 D
r0.8376470588235247 <
1)
b10011010 /
1*
#163000000
0)
0*
#163500000
r0.8352941176470542 <
r0.7988235294117698 D
r0.9811764705882224 L
r0.6529411764705929 T
1)
b10011011 /
1*
#164000000
0)
0*
#164500000
r0.649411764705887 T
r0.9797647058823401 L
r0.7962352941176521 D
r0.8329411764705836 <
1)
b10011100 /
1*
#165000000
0)
0*
#165500000
r0.8305882352941131 <
r0.7936470588235345 D
r0.9783529411764578 L
r0.6458823529411811 T
1)
b10011101 /
1*
#166000000
0)
0*
#166500000
r0.6423529411764752 T
r0.9769411764705754 L
r0.7910588235294168 D
r0.8282352941176425 <
1)
b10011110 /
1*
#167000000
0)
0*
#167500000
r0.825882352941172 <
r0.7884705882352991 D
r0.9755294117646931 L
r0.6388235294117693 T
1)
b10011111 /
1*
#168000000
0)
0*
#168500000
r0.6352941176470634 T
r0.9741176470588108 L
r0.7858823529411815 D
r0.8235294117647014 <
1)
b10100000 /
1*
#169000000
0)
0*
#169500000
r0.8211764705882308 <
r0.7832941176470638 D
r0.9727058823529284 L
r0.6317647058823576 T
1)
b10100001 /
1*
#170000000
0)
0*
#170500000
r0.6282352941176517 T
r0.9712941176470461 L
r0.7807058823529461 D
r0.8188235294117603 <
1)
b10100010 /
1*
#171000000
0)
0*
#171500000
r0.8164705882352897 <
r0.7781176470588285 D
r0.9698823529411638 L
r0.6247058823529458 T
1)
b10100011 /
1*
#172000000
0)
0*
#172500000
r0.6211764705882399 T
r0.9684705882352814 L
r0.7755294117647108 D
r0.8141176470588192 <
1)
b10100100 /
1*
#173000000
0)
0*
#173500000
r0.8117647058823486 <
r0.7729411764705931 D
r0.9670588235293991 L
r0.617647058823534 T
1)
b10100101 /
1*
#174000000
0)
0*
#174500000
r0.6141176470588281 T
r0.9656470588235168 L
r0.7703529411764755 D
r0.8094117647058781 <
1)
b10100110 /
1*
#175000000
0)
0*
#175500000
r0.8070588235294075 <
r0.7677647058823578 D
r0.9642352941176344 L
r0.6105882352941222 T
1)
b10100111 /
1*
#176000000
0)
0*
#176500000
r0.6070588235294163 T
r0.9628235294117521 L
r0.7651764705882401 D
r0.8047058823529369 <
1)
b10101000 /
1*
#177000000
0)
0*
#177500000
r0.8023529411764664 <
r0.7625882352941225 D
r0.9614117647058698 L
r0.6035294117647104 T
1)
b10101001 /
1*
#178000000
0)
0*
#178500000
r0.6000000000000045 T
r0.9599999999999874 L
r0.7600000000000048 D
r0.7999999999999958 <
1)
b10101010 /
1*
#179000000
0)
0*
#179500000
r0.7976470588235253 <
r0.7574117647058871 D
r0.9585882352941051 L
r0.5964705882352986 T
1)
b10101011 /
1*
#180000000
0)
0*
#180500000
r0.5929411764705927 T
r0.9571764705882227 L
r0.7548235294117694 D
r0.7952941176470547 <
1)
b10101100 /
1*
#181000000
0)
0*
#181500000
r0.7929411764705842 <
r0.7522352941176518 D
r0.9557647058823404 L
r0.5894117647058869 T
1)
b10101101 /
1*
